The moiraine R package user manual - 14 Comparing the integration results
…
In the plots, the consensus importance values have been normalised so that the highest value is 1. As we can see, metrics such as the geometric mean, harmonic mean, product or minimum will give higher consensus scores to features that are consistently assigned a high importance score across all methods, while features that have high a high importance score with one method but low score with the other will get a lower consensus score. Conversely, metrics such as the l2-norm or maximum prioritise features that are given a high importance score by at least one method, regardless of their importance score with other methods.

14.9.2 Computing features’ consensus importance score

The function compute_consensus_importance() takes as input a list of output objects from different integration methods, as well as a named list indicating which latent dimension from each output object should be considered. By default, the geometric mean is used, but this can be changed through the metric argument.

consensus_df <- compute_consensus_importance(
  output_list[2:3],
  list("MOFA" = "Factor 3", "sO2PLS" = "joint component 1")
)

consensus_df
#> # A tibble: 1,049 × 3
#>    dataset feature_id         importance
#>    <fct>   <chr>                   <dbl>
#>  1 rnaseq  ENSBTAG00000031647      1    
#>  2 rnaseq  ENSBTAG00000048835      0.937
#>  3 rnaseq  ENSBTAG00000049569      0.921
#>  4 rnaseq  ENSBTAG00000039037      0.875
#>  5 rnaseq  ENSBTAG00000008951      0.873
#>  6 rnaseq  ENSBTAG00000051132      0.792
#>  7 rnaseq  ENSBTAG00000052012      0.774
#>  8 rnaseq  ENSBTAG00000046158      0.767
#>  9 rnaseq  ENSBTAG00000006343      0.729
#> 10 rnaseq  ENSBTAG00000019627      0.723
#> # ℹ 1,039 more rows
…
