The moiraine R package user manual - 13 Evaluating the integration results
…
tar_target(
  diablo_silhouette,
  compute_samples_silhouette(
    diablo_output,
    mo_set_complete,
    "status"
  )
)

tar_load(diablo_silhouette)

diablo_silhouette
#> $samples_silhouette
#> # A tibble: 135 × 4
#>    sample_id group   neighbour_group silhouette_width
#>    <chr>     <fct>   <fct>                      <dbl>
#>  1 G1979     BRD     Control                    0.362
#>  2 G2500     BRD     Control                    0.267
#>  3 G3030     BRD     Control                    0.325
#>  4 G3068     BRD     Control                    0.373
#>  5 G3121     BRD     Control                    0.448
#>  6 G3315     Control BRD                        0.526
#>  7 G3473     Control BRD                        0.444
#>  8 G3474     Control BRD                        0.497
#>  9 G3550     BRD     Control                    0.411
#> 10 G3594     Control BRD                        0.542
#> # ℹ 125 more rows
…
