The moiraine R package user manual - 12 Interpreting the integration results
…
sO2PLS

MOFA

DIABLO

tar_target(
  spls_output,
  get_output(spls_final_run)
)

tar_load(spls_output)
spls_output
#> $features_weight
#> # A tibble: 2,098 × 5
#>    feature_id         dataset latent_dimension weight importance
#>    <chr>              <fct>   <fct>             <dbl>      <dbl>
#>  1 ENSBTAG00000000020 rnaseq  Component 1           0          0
#>  2 ENSBTAG00000000046 rnaseq  Component 1           0          0
#>  3 ENSBTAG00000000056 rnaseq  Component 1           0          0
#>  4 ENSBTAG00000000061 rnaseq  Component 1           0          0
#>  5 ENSBTAG00000000113 rnaseq  Component 1           0          0
#>  6 ENSBTAG00000000149 rnaseq  Component 1           0          0
#>  7 ENSBTAG00000000164 rnaseq  Component 1           0          0
#>  8 ENSBTAG00000000205 rnaseq  Component 1           0          0
#>  9 ENSBTAG00000000212 rnaseq  Component 1           0          0
#> 10 ENSBTAG00000000289 rnaseq  Component 1           0          0
#> # ℹ 2,088 more rows
#> 
#> $samples_score
#> # A tibble: 278 × 3
#>    sample_id latent_dimension score
#>    <chr>     <fct>            <dbl>
#>  1 G1979     Component 1       3.54
#>  2 G2500     Component 1       2.37
#>  3 G3030     Component 1       6.47
#>  4 G3068     Component 1       6.24
#>  5 G3121     Component 1       3.51
#>  6 G3315     Component 1      -4.75
#>  7 G3473     Component 1      -5.03
#>  8 G3474     Component 1      -4.85
#>  9 G3550     Component 1       3.69
#> 10 G3594     Component 1      -4.74
#> # ℹ 268 more rows
…
tar_target(
  so2pls_output,
  get_output(so2pls_final_run)
)

tar_load(so2pls_output)
so2pls_output
#> $features_weight
#> # A tibble: 8,117 × 5
#>    feature_id         dataset latent_dimension  weight importance
#>    <chr>              <fct>   <fct>              <dbl>      <dbl>
#>  1 ENSBTAG00000000020 rnaseq  joint component 1      0          0
#>  2 ENSBTAG00000000046 rnaseq  joint component 1      0          0
#>  3 ENSBTAG00000000056 rnaseq  joint component 1      0          0
#>  4 ENSBTAG00000000061 rnaseq  joint component 1      0          0
#>  5 ENSBTAG00000000113 rnaseq  joint component 1      0          0
#>  6 ENSBTAG00000000149 rnaseq  joint component 1      0          0
#>  7 ENSBTAG00000000164 rnaseq  joint component 1      0          0
#>  8 ENSBTAG00000000205 rnaseq  joint component 1      0          0
#>  9 ENSBTAG00000000212 rnaseq  joint component 1      0          0
#> 10 ENSBTAG00000000289 rnaseq  joint component 1      0          0
#> # ℹ 8,107 more rows
#> 
#> $samples_score
#> # A tibble: 1,390 × 3
#>    sample_id latent_dimension  score
#>    <chr>     <fct>             <dbl>
#>  1 G1979     joint component 1 -3.86
#>  2 G2500     joint component 1 -4.29
#>  3 G3030     joint component 1 -8.02
#>  4 G3068     joint component 1 -6.00
#>  5 G3121     joint component 1 -5.82
#>  6 G3315     joint component 1  8.51
#>  7 G3473     joint component 1  7.08
#>  8 G3474     joint component 1 10.7 
#>  9 G3550     joint component 1 -3.54
#> 10 G3594     joint component 1 10.5 
#> # ℹ 1,380 more rows
…
tar_target(
  mofa_output,
  get_output(mofa_trained)
)

tar_load(mofa_output)
mofa_output
#> $features_weight
#> # A tibble: 30,735 × 5
#>    feature_id                  dataset latent_dimension     weight importance
#>    <chr>                       <fct>   <fct>                 <dbl>      <dbl>
#>  1 21-25977541-C-T-rs41974686  snps    Factor 1          0.000390      0.140 
#>  2 22-51403583-A-C-rs210306176 snps    Factor 1          0.0000554     0.0199
#>  3 24-12959068-G-T-rs381471286 snps    Factor 1          0.000274      0.0987
#>  4 8-85224224-T-C-rs43565287   snps    Factor 1         -0.000510      0.184 
#>  5 ARS-BFGL-BAC-16973          snps    Factor 1         -0.000913      0.328 
#>  6 ARS-BFGL-BAC-19403          snps    Factor 1         -0.000516      0.185 
#>  7 ARS-BFGL-BAC-2450           snps    Factor 1          0.000567      0.204 
#>  8 ARS-BFGL-BAC-2600           snps    Factor 1         -0.0000356     0.0128
#>  9 ARS-BFGL-BAC-27911          snps    Factor 1         -0.000588      0.212 
#> 10 ARS-BFGL-BAC-35925          snps    Factor 1          0.000836      0.301 
#> # ℹ 30,725 more rows
#> 
#> $samples_score
#> # A tibble: 2,160 × 3
#>    sample_id latent_dimension score
#>    <chr>     <fct>            <dbl>
#>  1 G1979     Factor 1          1.94
#>  2 G2500     Factor 1          2.02
#>  3 G3030     Factor 1          3.38
#>  4 G3068     Factor 1          3.68
#>  5 G3121     Factor 1          1.56
#>  6 G3315     Factor 1         -1.82
#>  7 G3473     Factor 1         -2.65
#>  8 G3474     Factor 1         -2.32
#>  9 G3550     Factor 1          2.99
#> 10 G3594     Factor 1         -1.89
#> # ℹ 2,150 more rows
#> 
#> $variance_explained
#> # A tibble: 45 × 3
#>    latent_dimension dataset    prop_var_expl
#>    <fct>            <fct>              <dbl>
#>  1 Factor 1         snps           0.000325 
#>  2 Factor 1         rnaseq         0.496    
#>  3 Factor 1         metabolome     0.0846   
#>  4 Factor 2         snps           0.239    
#>  5 Factor 2         rnaseq         0.000207 
#>  6 Factor 2         metabolome     0.00671  
#>  7 Factor 3         snps           0.000113 
#>  8 Factor 3         rnaseq         0.199    
#>  9 Factor 3         metabolome     0.0000529
#> 10 Factor 4         snps           0.0000964
#> # ℹ 35 more rows
#> 
#> attr(,"class")
#> [1] "output_dimension_reduction"
#> attr(,"method")
#> [1] "MOFA"

tar_target(
  diablo_output,
  get_output(diablo_final_run)
)

tar_load(diablo_output)
diablo_output
#> $features_weight
#> # A tibble: 8,196 × 5
#>    feature_id                  dataset latent_dimension weight importance
#>    <chr>                       <fct>   <fct>             <dbl>      <dbl>
#>  1 21-25977541-C-T-rs41974686  snps    Component 1           0          0
#>  2 22-51403583-A-C-rs210306176 snps    Component 1           0          0
#>  3 24-12959068-G-T-rs381471286 snps    Component 1           0          0
#>  4 8-85224224-T-C-rs43565287   snps    Component 1           0          0
#>  5 ARS-BFGL-BAC-16973          snps    Component 1           0          0
#>  6 ARS-BFGL-BAC-19403          snps    Component 1           0          0
#>  7 ARS-BFGL-BAC-2450           snps    Component 1           0          0
#>  8 ARS-BFGL-BAC-2600           snps    Component 1           0          0
#>  9 ARS-BFGL-BAC-27911          snps    Component 1           0          0
#> 10 ARS-BFGL-BAC-35925          snps    Component 1           0          0
#> # ℹ 8,186 more rows
#> 
#> $samples_score
#> # A tibble: 540 × 3
#>    sample_id latent_dimension score
#>    <chr>     <fct>            <dbl>
#>  1 G1979     Component 1       1.95
#>  2 G2500     Component 1       1.43
#>  3 G3030     Component 1       3.72
#>  4 G3068     Component 1       3.70
#>  5 G3121     Component 1       2.03
#>  6 G3315     Component 1      -3.45
#>  7 G3473     Component 1      -4.02
#>  8 G3474     Component 1      -3.24
#>  9 G3550     Component 1       2.43
#> 10 G3594     Component 1      -2.49
#> # ℹ 530 more rows
…
