The moiraine R package user manual - 1 Overview of moiraine
…
More details about how to use these integration tools through moiraine can be found in Chapters 8 to 11.

1.5 Interpreting the integration results

One of the main goals of moiraine is to facilitate the interpretation of the omics integration results. To this end, the outcome of any of the supported integration methods can be converted to a standardised integration output format, e.g.:

Code
get_output(mofa_trained)

#> $features_weight
#> # A tibble: 8,196 × 5
#>    feature_id                  dataset latent_dimension     weight importance
#>    <chr>                       <fct>   <fct>                 <dbl>      <dbl>
#>  1 21-25977541-C-T-rs41974686  snps    Factor 1          0.000374      0.139 
#>  2 22-51403583-A-C-rs210306176 snps    Factor 1          0.0000535     0.0199
#>  3 24-12959068-G-T-rs381471286 snps    Factor 1          0.000268      0.0999
#>  4 8-85224224-T-C-rs43565287   snps    Factor 1         -0.000492      0.183 
#>  5 ARS-BFGL-BAC-16973          snps    Factor 1         -0.000883      0.329 
#>  6 ARS-BFGL-BAC-19403          snps    Factor 1         -0.000500      0.186 
#>  7 ARS-BFGL-BAC-2450           snps    Factor 1          0.000555      0.207 
#>  8 ARS-BFGL-BAC-2600           snps    Factor 1         -0.0000325     0.0121
#>  9 ARS-BFGL-BAC-27911          snps    Factor 1         -0.000568      0.212 
#> 10 ARS-BFGL-BAC-35925          snps    Factor 1          0.000803      0.299 
#> # ℹ 8,186 more rows
#> 
#> $samples_score
#> # A tibble: 576 × 3
#>    sample_id latent_dimension score
#>    <chr>     <fct>            <dbl>
#>  1 G1979     Factor 1          1.95
#>  2 G2500     Factor 1          1.98
#>  3 G3030     Factor 1          3.39
#>  4 G3068     Factor 1          3.65
#>  5 G3121     Factor 1          1.57
#>  6 G3315     Factor 1         -1.81
#>  7 G3473     Factor 1         -2.63
#>  8 G3474     Factor 1         -2.30
#>  9 G3550     Factor 1          2.98
#> 10 G3594     Factor 1         -1.88
#> # ℹ 566 more rows
…
